﻿{
  "$schema": "http://json.schemastore.org/launchsettings.json",
  "iisSettings": {
    "windowsAuthentication": false,
    "anonymousAuthentication": true,
    "iisExpress": {
      "applicationUrl": "http://localhost:49253",
      "sslPort": 44311
    }
  },
  "profiles": {
    "IIS Express": {
      "commandName": "IISExpress",
      "environmentVariables": {
        "ASPNETCORE_ENVIRONMENT": "Development"
      },
      "launchBrowser": true,
      //"launchUrl": "api/AccountList",
      "launchUrl": "swagger/index.html"
    },
    "API.API": {
      "applicationUrl": "https://localhost:5001;http://localhost:5000",
      "commandName": "Project",
      "environmentVariables": {
        "ASPNETCORE_ENVIRONMENT": "Development"
      },
      "launchBrowser": true,
      "launchUrl": "api/User"
    }
  }
}